%YAML 1.1
%TAG !u! tag:unity3d.com,2011:
--- !u!1045 &1
EditorBuildSettings:
  m_ObjectHideFlags: 0
  serializedVersion: 2
  m_Scenes:
  - enabled: 1
    path: Assets/Scenes/Title.unity
    guid: 368c8eeb378b23b44937bff0db290b27
  - enabled: 1
    path: Assets/Scenes/Loading.unity
    guid: 31f7879a0913fcf4092095b182c0b302
  - enabled: 1
    path: Assets/Scenes/Marz1/CrazyVille.unity
    guid: 3c4cc525732ac8c46b243403cc943233
  - enabled: 1
    path: Assets/Scenes/Tutorial.unity
    guid: 10ff7e35df875b749bfa2c4162bd0b2d
  - enabled: 1
    path: Assets/Scenes/Marz1/Marz1_Swordshop.unity
    guid: 9d276c646e6bea04b9825137f98165d3
  - enabled: 1
    path: Assets/Scenes/Marz1/Marz1_CheezShop.unity
    guid: 99d3d17348f1b0545856cb0fb330092f
  - enabled: 1
    path: Assets/Scenes/MissionOver.unity
    guid: 2b49df48b417a27448ab339d4479be75
  m_configObjects: {}
