%YAML 1.1
%TAG !u! tag:unity3d.com,2011:
--- !u!114 &11400000
MonoBehaviour:
  m_ObjectHideFlags: 0
  m_CorrespondingSourceObject: {fileID: 0}
  m_PrefabInstance: {fileID: 0}
  m_PrefabAsset: {fileID: 0}
  m_GameObject: {fileID: 0}
  m_Enabled: 1
  m_EditorHideFlags: 0
  m_Script: {fileID: 11500000, guid: 84a92b25f83d49b9bc132d206b370281, type: 3}
  m_Name: Emoticans.fw
  m_EditorClassIdentifier: 
  hashCode: -1437612774
  material: {fileID: 21933053833570270}
  materialHashCode: 0
  spriteSheet: {fileID: 2800000, guid: 86a730258dfbadd49b487bb08e6654f3, type: 3}
  spriteInfoList:
  - id: 0
    x: 0
    y: 192
    width: 64
    height: 64
    xOffset: 0
    yOffset: 64
    xAdvance: 64
    scale: 1
    name: Emoticans.fw_0
    hashCode: 2102749333
    unicode: 0
    pivot: {x: -32, y: 32}
    sprite: {fileID: 21300000, guid: 86a730258dfbadd49b487bb08e6654f3, type: 3}
  - id: 1
    x: 64
    y: 192
    width: 64
    height: 64
    xOffset: 0
    yOffset: 64
    xAdvance: 64
    scale: 1
    name: Emoticans.fw_1
    hashCode: 2102749332
    unicode: 0
    pivot: {x: -32, y: 32}
    sprite: {fileID: 21300002, guid: 86a730258dfbadd49b487bb08e6654f3, type: 3}
  - id: 2
    x: 128
    y: 192
    width: 64
    height: 64
    xOffset: 0
    yOffset: 64
    xAdvance: 64
    scale: 1
    name: Emoticans.fw_2
    hashCode: 2102749335
    unicode: 0
    pivot: {x: -32, y: 32}
    sprite: {fileID: 21300004, guid: 86a730258dfbadd49b487bb08e6654f3, type: 3}
  - id: 3
    x: 192
    y: 192
    width: 64
    height: 64
    xOffset: 0
    yOffset: 64
    xAdvance: 64
    scale: 1
    name: Emoticans.fw_3
    hashCode: 2102749334
    unicode: 0
    pivot: {x: -32, y: 32}
    sprite: {fileID: 21300006, guid: 86a730258dfbadd49b487bb08e6654f3, type: 3}
  - id: 4
    x: 0
    y: 128
    width: 64
    height: 64
    xOffset: 0
    yOffset: 64
    xAdvance: 64
    scale: 1
    name: Emoticans.fw_4
    hashCode: 2102749329
    unicode: 0
    pivot: {x: -32, y: 32}
    sprite: {fileID: 21300008, guid: 86a730258dfbadd49b487bb08e6654f3, type: 3}
  - id: 5
    x: 64
    y: 128
    width: 64
    height: 64
    xOffset: 0
    yOffset: 64
    xAdvance: 64
    scale: 1
    name: Emoticans.fw_5
    hashCode: 2102749328
    unicode: 0
    pivot: {x: -32, y: 32}
    sprite: {fileID: 21300010, guid: 86a730258dfbadd49b487bb08e6654f3, type: 3}
  - id: 6
    x: 128
    y: 128
    width: 64
    height: 64
    xOffset: 0
    yOffset: 64
    xAdvance: 64
    scale: 1
    name: Emoticans.fw_6
    hashCode: 2102749331
    unicode: 0
    pivot: {x: -32, y: 32}
    sprite: {fileID: 21300012, guid: 86a730258dfbadd49b487bb08e6654f3, type: 3}
  - id: 7
    x: 192
    y: 128
    width: 64
    height: 64
    xOffset: 0
    yOffset: 64
    xAdvance: 64
    scale: 1
    name: Emoticans.fw_7
    hashCode: 2102749330
    unicode: 0
    pivot: {x: -32, y: 32}
    sprite: {fileID: 21300014, guid: 86a730258dfbadd49b487bb08e6654f3, type: 3}
  fallbackSpriteAssets: []
--- !u!21 &21933053833570270
Material:
  serializedVersion: 6
  m_ObjectHideFlags: 1
  m_CorrespondingSourceObject: {fileID: 0}
  m_PrefabInstance: {fileID: 0}
  m_PrefabAsset: {fileID: 0}
  m_Name: TextMeshPro/Sprite
  m_Shader: {fileID: 4800000, guid: cf81c85f95fe47e1a27f6ae460cf182c, type: 3}
  m_ShaderKeywords: 
  m_LightmapFlags: 4
  m_EnableInstancingVariants: 0
  m_DoubleSidedGI: 0
  m_CustomRenderQueue: -1
  stringTagMap: {}
  disabledShaderPasses: []
  m_SavedProperties:
    serializedVersion: 3
    m_TexEnvs:
    - _MainTex:
        m_Texture: {fileID: 2800000, guid: 86a730258dfbadd49b487bb08e6654f3, type: 3}
        m_Scale: {x: 1, y: 1}
        m_Offset: {x: 0, y: 0}
    m_Floats:
    - _ColorMask: 15
    - _Stencil: 0
    - _StencilComp: 8
    - _StencilOp: 0
    - _StencilReadMask: 255
    - _StencilWriteMask: 255
    - _UseUIAlphaClip: 0
    m_Colors:
    - _ClipRect: {r: -32767, g: -32767, b: 32767, a: 32767}
    - _Color: {r: 1, g: 1, b: 1, a: 1}
